digraph G
{
  edge [fontname="FreeSans.ttf",fontsize=10,labelfontname="FreeSans.ttf",labelfontsize=10];
  node [fontname="FreeSans.ttf",fontsize=10,shape=record];
  rankdir=LR;
  Node1 [label="D:/dev/faif/src/learning/rnbc/RandomNaiveBayesianTraining.h",height=0.2,width=0.4,color="black", fillcolor="grey75", style="filled" fontcolor="black"];
  Node1 -> Node2 [color="midnightblue",fontsize=10,style="solid",fontname="FreeSans.ttf"];
  Node2 [label="map",height=0.2,width=0.4,color="grey75", fillcolor="white", style="filled"];
  Node1 -> Node3 [color="midnightblue",fontsize=10,style="solid",fontname="FreeSans.ttf"];
  Node3 [label="../ExampleTest.h",height=0.2,width=0.4,color="grey75", fillcolor="white", style="filled"];
  Node1 -> Node4 [color="midnightblue",fontsize=10,style="solid",fontname="FreeSans.ttf"];
  Node4 [label="RandomNaiveBayesianRoot.h",height=0.2,width=0.4,color="red", fillcolor="white", style="filled",URL="$_random_naive_bayesian_root_8h.html"];
}
