digraph G
{
  edge [fontname="FreeSans.ttf",fontsize=10,labelfontname="FreeSans.ttf",labelfontsize=10];
  node [fontname="FreeSans.ttf",fontsize=10,shape=record];
  Node1 [label="faif::ml::RandomNaiveBayesianTraining",height=0.2,width=0.4,color="black", fillcolor="grey75", style="filled" fontcolor="black"];
  Node2 -> Node1 [dir=back,color="midnightblue",fontsize=10,style="solid",fontname="FreeSans.ttf"];
  Node2 [label="faif::ml::RandomNaiveBayesianRoot",height=0.2,width=0.4,color="black", fillcolor="white", style="filled",URL="$classfaif_1_1ml_1_1_random_naive_bayesian_root.html"];
}
