digraph G
{
  edge [fontname="FreeSans.ttf",fontsize=10,labelfontname="FreeSans.ttf",labelfontsize=10];
  node [fontname="FreeSans.ttf",fontsize=10,shape=record];
  rankdir=LR;
  Node1 [label="EnumerateAttribsFunctor",height=0.2,width=0.4,color="black", fillcolor="white", style="filled",URL="$struct_enumerate_attribs_functor.html"];
}
